PS270 Final Project
…
Milestone 3 - One data visualization (organized table and scatterblot)

plotting_data <- my_data |>
select(cname, wdi_expedu, vdem_gender) |>
  na.omit()
plotting_data

# A tibble: 156 × 3
   cname      wdi_expedu vdem_gender
   <chr>           <dbl>       <dbl>
 1 Albania          2.73       0.901
 2 Algeria          4.75       0.613
 3 Angola           2.39       0.74 
 4 Azerbaijan       3.05       0.63 
 5 Argentina        4.79       0.851
 6 Australia        5.06       0.917
 7 Austria          5.28       0.919
 8 Bahrain          1.71       0.551
 9 Bangladesh       2.09       0.669
10 Armenia          2.49       0.884
# ℹ 146 more rows
…
